04_describe
…
value_index

# A tibble: 31 × 2
   Value     ID
   <chr>  <int>
 1 8020/3     1
 2 8140/3     2
 3 8246/3     3
 4 8255/3     4
 5 8480/3     5
 6 8500/3     6
 7 C25.0      7
 8 C25.1      8
 9 C25.2      9
10 C25.8     10
# ℹ 21 more rows
…
